Generation,Fitness 1,Fitness 2,Fitness 3,Fitness 4,Fitness 5,Fitness 6,Fitness 7,Fitness 8,Fitness 9,AVG
1,3.200037,1.186158,0.1842701,2.098923,1.308312,0.4830004,2.474694,2.34365,1.25987,1.615434944
2,3.200037,1.186158,0.1842701,2.098923,1.308312,0.4830004,2.474694,2.34365,1.25987,1.615434944
3,3.200037,1.186158,0.2415915,2.098923,1.308312,1.628379,2.474694,2.34365,2.641794,1.902615389
4,3.200037,1.186158,0.2415915,2.098923,1.308312,1.628379,2.474694,2.34365,2.641794,1.902615389
5,3.200037,1.186158,0.2415915,2.098923,1.308312,1.628379,2.474694,2.34365,2.641794,1.902615389
6,3.200037,1.389775,0.2415915,2.098923,1.308312,1.628379,2.474694,2.34365,2.641794,1.9252395
7,3.200037,1.389775,0.2415915,2.098923,1.308312,2.29478,2.474694,2.34365,2.641794,1.999284056
8,3.200037,1.389775,0.2415915,2.098923,1.308312,2.29478,2.474694,2.34365,2.641794,1.999284056
9,3.200037,1.921529,2.327126,2.098923,1.308312,2.29478,2.474694,2.34365,2.641794,2.290093889
10,3.200037,1.921529,2.327126,2.098923,1.308312,2.29478,2.474694,2.34365,2.641794,2.290093889
11,3.200037,1.921529,2.327126,2.098923,1.308312,2.29478,2.474694,2.34365,2.641794,2.290093889
12,3.200037,1.921529,2.327126,2.098923,1.308312,2.29478,2.474694,2.34365,2.641794,2.290093889
13,3.200037,1.921529,2.327126,2.098923,1.308312,2.29478,2.474694,2.34365,2.641794,2.290093889
14,3.200037,1.921529,2.327126,2.098923,1.308312,2.29478,2.474694,2.34365,2.641794,2.290093889
15,3.200037,1.921529,2.327126,2.098923,1.308312,2.29478,2.474694,2.34365,2.641794,2.290093889
16,3.200037,1.921529,2.327126,2.098923,1.308312,2.29478,2.474694,2.34365,2.641794,2.290093889
17,3.200037,1.921529,2.327126,2.098923,1.308312,2.29478,2.474694,2.34365,2.641794,2.290093889
18,3.200037,1.921529,2.327126,2.128774,1.308312,2.29478,2.474694,2.34365,2.641794,2.293410667
19,3.200037,1.921529,2.327126,2.128774,1.308312,2.29478,2.474694,2.34365,2.641794,2.293410667
20,3.200037,1.921529,2.327126,2.128774,1.335476,2.29478,2.474694,2.34365,2.641794,2.296428889
21,3.200037,1.921529,2.327126,2.128774,1.335476,2.29478,2.507182,2.34365,2.641794,2.300038667
22,3.200037,1.921529,2.327126,2.128774,1.335476,2.29478,2.507182,2.34365,3.025085,2.342626556
23,3.200037,2.142604,2.327126,2.128774,1.335476,2.901669,2.507182,2.34365,3.025085,2.434622556
24,3.200037,2.142604,2.327126,2.128774,1.335476,2.901669,2.507182,2.34365,3.025085,2.434622556
25,3.200037,2.142604,2.327126,2.128774,1.335476,2.901669,2.507182,2.34365,3.025085,2.434622556
26,3.200037,2.142604,2.327126,2.215261,1.738197,2.901669,2.507182,2.34365,3.025085,2.488979
27,3.200037,2.142604,2.327126,2.215261,1.738197,2.901669,2.507182,2.34365,3.025085,2.488979
28,3.200037,2.142604,2.327126,2.215261,1.738197,2.901669,2.83152,2.34365,3.025085,2.525016556
29,3.200037,3.368156,2.327126,2.215261,1.738197,2.901669,2.83152,2.34365,3.025085,2.661189
30,3.200037,3.368156,2.327126,2.215261,1.738197,2.901669,2.83152,2.34365,3.025085,2.661189
31,3.200037,3.368156,2.327126,2.215261,1.738197,2.901669,2.83152,2.34365,3.025085,2.661189
32,3.200037,3.368156,2.327126,2.215261,1.738197,2.901669,2.83152,2.34365,3.025085,2.661189
33,3.200037,3.368156,2.539441,2.215261,1.738197,2.901669,2.83152,2.34365,3.025085,2.684779556
34,3.200037,3.368156,2.539441,2.215261,1.738197,2.901669,2.83152,2.34365,3.025085,2.684779556
35,3.200037,3.368156,2.539441,2.215261,1.738197,2.901669,2.83152,2.34365,3.025085,2.684779556
36,3.200037,3.368156,2.539441,2.215261,1.738197,2.901669,2.83152,2.34365,3.025085,2.684779556
37,3.200037,3.368156,2.539441,2.215261,1.738197,2.901669,2.83152,2.34365,3.025085,2.684779556
38,3.200037,3.368156,2.539441,2.215261,1.738197,2.901669,2.83152,2.34365,3.025085,2.684779556
39,3.200037,3.368156,2.539441,2.215261,1.738197,2.901669,2.83152,2.34365,3.025085,2.684779556
40,3.200037,3.368156,2.539441,2.215261,1.90961,2.901669,2.83152,2.34365,3.025085,2.703825444
41,3.200037,3.368156,2.539441,2.215261,1.90961,2.901669,2.83152,2.34365,3.025085,2.703825444
42,3.200037,3.368156,2.539441,2.215261,1.90961,2.901669,2.83152,2.34365,3.025085,2.703825444
43,3.200037,3.368156,2.539441,2.215261,1.90961,2.901669,2.83152,2.34365,3.025085,2.703825444
44,3.200037,3.368156,2.539441,2.215261,1.90961,2.901669,2.83152,2.34365,3.025085,2.703825444
45,3.200037,3.368156,2.539441,2.215261,1.90961,2.901669,2.83152,2.34365,3.025085,2.703825444
46,3.200037,3.368156,2.539441,2.215261,2.018488,2.901669,2.83152,2.34365,3.025085,2.715923
47,3.200037,3.368156,2.539441,2.215261,2.018488,2.901669,2.83152,2.34365,3.025085,2.715923
48,3.200037,3.368156,2.539441,2.215261,2.018488,2.901669,2.83152,2.34365,3.025085,2.715923
49,3.200037,3.368156,2.539441,2.215261,2.149361,2.901669,2.83152,2.34365,3.025085,2.730464444
50,3.200037,3.368156,2.539441,2.215261,2.149361,2.901669,2.83152,2.34365,3.025085,2.730464444
51,3.200037,3.368156,2.539441,2.215261,2.149361,2.901669,2.83152,2.34365,3.025085,2.730464444
52,3.200037,3.368156,2.539441,2.215261,2.149361,2.901669,2.83152,2.34365,3.025085,2.730464444
53,3.200037,3.368156,2.539441,2.215261,2.149361,2.901669,2.83152,2.34365,3.025085,2.730464444
54,3.200037,3.368156,2.539441,2.215261,2.149361,2.901669,2.83152,2.34365,3.025085,2.730464444
55,3.200037,3.368156,2.539441,2.215261,2.149361,2.901669,2.83152,2.34365,3.025085,2.730464444
56,3.200037,3.368156,2.539441,2.215261,2.149361,2.901669,2.83152,2.34365,3.025085,2.730464444
57,3.200037,3.368156,2.539441,2.215261,2.149361,2.901669,2.83152,2.34365,3.025085,2.730464444
58,3.200037,3.368156,2.539441,2.215261,2.149361,2.901669,2.83152,2.34365,3.025085,2.730464444
59,3.200037,3.368156,2.539441,2.215261,2.149361,2.901669,2.83152,2.34365,3.025085,2.730464444
60,3.200037,3.368156,2.539441,2.215261,2.149361,2.901669,2.83152,2.34365,3.025085,2.730464444
61,3.200037,3.368156,2.539441,2.215261,2.149361,2.901669,2.83152,2.387521,3.025085,2.735339
62,3.200037,3.368156,2.539441,2.215261,2.149361,2.901669,2.83152,2.387521,3.025085,2.735339
63,3.200037,3.368156,2.539441,2.215261,2.149361,2.901669,2.83152,2.387521,3.025085,2.735339
64,3.200037,3.368156,2.539441,2.215261,2.149361,2.901669,2.83152,2.387521,3.025085,2.735339
65,3.200037,3.368156,2.539441,2.215261,2.149361,2.901669,2.83152,2.387521,3.025085,2.735339
66,3.200037,3.368156,2.539441,2.215261,2.149361,2.901669,2.83152,2.387521,3.025085,2.735339
67,3.200037,3.368156,2.539441,2.215261,2.149361,2.901669,2.83152,2.387521,3.025085,2.735339
68,3.200037,3.368156,2.539441,2.215261,2.149361,2.901669,2.83152,2.387521,3.025085,2.735339
69,3.200037,3.368156,2.539441,2.215261,2.149361,2.901669,2.83152,2.387521,3.025085,2.735339
70,3.200037,3.368156,2.539441,2.215261,2.149361,2.901669,2.83152,2.387521,3.025085,2.735339
71,3.200037,3.368156,2.539441,2.215261,2.149361,2.901669,2.83152,2.387521,3.025085,2.735339
72,3.200037,3.368156,2.539441,2.215261,2.149361,2.901669,3.332904,2.387521,3.025085,2.791048333
73,3.200037,3.368156,2.539441,2.711715,2.149361,2.901669,3.332904,2.387521,3.025085,2.846209889
74,3.200037,3.368156,2.539441,2.711715,2.149361,2.901669,3.332904,2.387521,3.025085,2.846209889
75,3.200037,3.368156,2.539441,2.711715,2.149361,2.901669,3.332904,2.387521,3.025085,2.846209889
76,3.200037,3.368156,2.539441,2.711715,2.149361,2.901669,3.332904,2.387521,3.025085,2.846209889
77,3.799037,3.368156,2.539441,2.711715,2.149361,2.901669,3.332904,2.387521,3.025085,2.912765444
78,3.799037,3.368156,2.539441,2.711715,2.149361,2.901669,3.332904,2.387521,3.025085,2.912765444
79,3.799037,3.368156,2.539441,2.711715,3.135074,2.901669,3.332904,2.387521,3.025085,3.022289111
80,3.799037,3.368156,2.539441,2.711715,3.135074,2.901669,3.332904,2.387521,3.025085,3.022289111
81,3.799037,3.368156,2.539441,2.711715,3.135074,2.901669,3.332904,2.387521,3.025085,3.022289111
82,3.799037,3.368156,2.539441,2.711715,3.135074,2.901669,3.332904,2.387521,3.025085,3.022289111
83,3.799037,3.368156,3.392793,2.711715,3.135074,2.901669,3.332904,2.387521,3.025085,3.117106
84,3.799037,3.368156,3.392793,2.711715,3.135074,2.901669,3.332904,2.387521,3.025085,3.117106
85,3.799037,3.368156,3.392793,2.711715,3.135074,2.901669,3.332904,2.387521,3.025085,3.117106
86,3.799037,3.368156,3.392793,2.711715,3.135074,2.901669,3.332904,2.387521,3.025085,3.117106
87,3.799037,3.368156,3.392793,2.711715,3.135074,2.901669,3.332904,2.387521,3.025085,3.117106
88,3.799037,3.368156,3.392793,2.711715,3.135074,2.901669,3.332904,2.387521,3.025085,3.117106
89,3.799037,3.368156,3.392793,2.711715,3.135074,2.901669,3.332904,2.387521,3.025085,3.117106
90,3.799037,3.368156,3.392793,2.711715,3.135074,2.901669,3.332904,2.387521,3.025085,3.117106
91,3.799037,3.368156,3.392793,2.711715,3.135074,2.901669,3.332904,2.387521,3.025085,3.117106
92,3.799037,3.368156,3.392793,2.711715,3.135074,2.901669,3.332904,2.387521,3.025085,3.117106
93,3.799037,3.368156,3.392793,2.711715,3.135074,2.901669,3.332904,2.387521,3.025085,3.117106
94,3.799037,3.368156,3.392793,2.711715,3.135074,2.901669,3.332904,2.387521,3.025085,3.117106
95,3.799037,3.368156,3.392793,2.711715,3.135074,2.901669,3.332904,2.387521,3.025085,3.117106
96,3.799037,3.368156,3.392793,2.711715,3.135074,2.901669,3.332904,2.387521,3.025085,3.117106
97,3.799037,3.368156,3.392793,2.711715,3.135074,2.901669,3.332904,2.387521,3.025085,3.117106
98,3.799037,3.368156,3.392793,2.711715,3.135074,2.901669,3.332904,2.387521,3.025085,3.117106
99,3.799037,3.368156,3.392793,2.711715,3.135074,2.901669,3.332904,2.387521,3.025085,3.117106
100,3.799037,3.368156,3.392793,2.711715,3.135074,2.901669,3.332904,2.387521,3.025085,3.117106